%YAML 1.1
%TAG !u! tag:unity3d.com,2011:
--- !u!29 &1
OcclusionCullingSettings:
  m_ObjectHideFlags: 0
  serializedVersion: 2
  m_OcclusionBakeSettings:
    smallestOccluder: 5
    smallestHole: 0.25
    backfaceThreshold: 100
  m_SceneGUID: 00000000000000000000000000000000
  m_OcclusionCullingData: {fileID: 0}
--- !u!104 &2
RenderSettings:
  m_ObjectHideFlags: 0
  serializedVersion: 9
  m_Fog: 0
  m_FogColor: {r: 0.5, g: 0.5, b: 0.5, a: 1}
  m_FogMode: 3
  m_FogDensity: 0.01
  m_LinearFogStart: 0
  m_LinearFogEnd: 300
  m_AmbientSkyColor: {r: 0.212, g: 0.227, b: 0.259, a: 1}
  m_AmbientEquatorColor: {r: 0.114, g: 0.125, b: 0.133, a: 1}
  m_AmbientGroundColor: {r: 0.047, g: 0.043, b: 0.035, a: 1}
  m_AmbientIntensity: 1
  m_AmbientMode: 0
  m_SubtractiveShadowColor: {r: 0.42, g: 0.478, b: 0.627, a: 1}
  m_SkyboxMaterial: {fileID: 10304, guid: 0000000000000000f000000000000000, type: 0}
  m_HaloStrength: 0.5
  m_FlareStrength: 1
  m_FlareFadeSpeed: 3
  m_HaloTexture: {fileID: 0}
  m_SpotCookie: {fileID: 10001, guid: 0000000000000000e000000000000000, type: 0}
  m_DefaultReflectionMode: 0
  m_DefaultReflectionResolution: 128
  m_ReflectionBounces: 1
  m_ReflectionIntensity: 1
  m_CustomReflection: {fileID: 0}
  m_Sun: {fileID: 0}
  m_IndirectSpecularColor: {r: 0, g: 0, b: 0, a: 1}
  m_UseRadianceAmbientProbe: 0
--- !u!157 &3
LightmapSettings:
  m_ObjectHideFlags: 0
  serializedVersion: 11
  m_GIWorkflowMode: 0
  m_GISettings:
    serializedVersion: 2
    m_BounceScale: 1
    m_IndirectOutputScale: 1
    m_AlbedoBoost: 1
    m_TemporalCoherenceThreshold: 1
    m_EnvironmentLightingMode: 0
    m_EnableBakedLightmaps: 1
    m_EnableRealtimeLightmaps: 1
  m_LightmapEditorSettings:
    serializedVersion: 10
    m_Resolution: 2
    m_BakeResolution: 40
    m_AtlasSize: 1024
    m_AO: 0
    m_AOMaxDistance: 1
    m_CompAOExponent: 0
    m_CompAOExponentDirect: 0
    m_Padding: 2
    m_LightmapParameters: {fileID: 0}
    m_LightmapsBakeMode: 1
    m_TextureCompression: 1
    m_FinalGather: 0
    m_FinalGatherFiltering: 1
    m_FinalGatherRayCount: 1024
    m_ReflectionCompression: 2
    m_MixedBakeMode: 1
    m_BakeBackend: 0
    m_PVRSampling: 1
    m_PVRDirectSampleCount: 32
    m_PVRSampleCount: 500
    m_PVRBounces: 2
    m_PVRFilterTypeDirect: 0
    m_PVRFilterTypeIndirect: 0
    m_PVRFilterTypeAO: 0
    m_PVRFilteringMode: 0
    m_PVRCulling: 1
    m_PVRFilteringGaussRadiusDirect: 1
    m_PVRFilteringGaussRadiusIndirect: 5
    m_PVRFilteringGaussRadiusAO: 2
    m_PVRFilteringAtrousPositionSigmaDirect: 0.5
    m_PVRFilteringAtrousPositionSigmaIndirect: 2
    m_PVRFilteringAtrousPositionSigmaAO: 1
    m_ShowResolutionOverlay: 1
  m_LightingDataAsset: {fileID: 0}
  m_UseShadowmask: 0
--- !u!196 &4
NavMeshSettings:
  serializedVersion: 2
  m_ObjectHideFlags: 0
  m_BuildSettings:
    serializedVersion: 2
    agentTypeID: 0
    agentRadius: 0.5
    agentHeight: 2
    agentSlope: 45
    agentClimb: 0.4
    ledgeDropHeight: 0
    maxJumpAcrossDistance: 0
    minRegionArea: 2
    manualCellSize: 0
    cellSize: 0.16666667
    manualTileSize: 0
    tileSize: 256
    accuratePlacement: 0
    debug:
      m_Flags: 0
  m_NavMeshData: {fileID: 0}
--- !u!1 &92667974
GameObject:
  m_ObjectHideFlags: 0
  m_CorrespondingSourceObject: {fileID: 146574, guid: 282acde1ec2fce44ab4d78f7b5a28add,
    type: 2}
  m_PrefabInternal: {fileID: 2116871286}
  serializedVersion: 6
  m_Component:
  - component: {fileID: 92667975}
  - component: {fileID: 92667976}
  m_Layer: 0
  m_Name: PointLight1
  m_TagString: Untagged
  m_Icon: {fileID: 0}
  m_NavMeshLayer: 0
  m_StaticEditorFlags: 0
  m_IsActive: 1
--- !u!4 &92667975
Transform:
  m_ObjectHideFlags: 0
  m_CorrespondingSourceObject: {fileID: 405882, guid: 282acde1ec2fce44ab4d78f7b5a28add,
    type: 2}
  m_PrefabInternal: {fileID: 2116871286}
  m_GameObject: {fileID: 92667974}
  m_LocalRotation: {x: 0, y: 0, z: 0, w: 1}
  m_LocalPosition: {x: -2, y: 0, z: 0}
  m_LocalScale: {x: 1, y: 1, z: 1}
  m_Children:
  - {fileID: 526702957}
  m_Father: {fileID: 1098535023}
  m_RootOrder: 0
  m_LocalEulerAnglesHint: {x: 0, y: 0, z: 0}
--- !u!108 &92667976
Light:
  m_ObjectHideFlags: 0
  m_CorrespondingSourceObject: {fileID: 10824778, guid: 282acde1ec2fce44ab4d78f7b5a28add,
    type: 2}
  m_PrefabInternal: {fileID: 2116871286}
  m_GameObject: {fileID: 92667974}
  m_Enabled: 1
  serializedVersion: 8
  m_Type: 2
  m_Color: {r: 1, g: 1, b: 1, a: 1}
  m_Intensity: 1
  m_Range: 10
  m_SpotAngle: 30
  m_CookieSize: 10
  m_Shadows:
    m_Type: 2
    m_Resolution: -1
    m_CustomResolution: -1
    m_Strength: 1
    m_Bias: 0.05
    m_NormalBias: 0.4
    m_NearPlane: 0.2
  m_Cookie: {fileID: 0}
  m_DrawHalo: 0
  m_Flare: {fileID: 0}
  m_RenderMode: 0
  m_CullingMask:
    serializedVersion: 2
    m_Bits: 4294967295
  m_Lightmapping: 4
  m_LightShadowCasterMode: 0
  m_AreaSize: {x: 1, y: 1}
  m_BounceIntensity: 0
  m_ColorTemperature: 6570
  m_UseColorTemperature: 0
  m_ShadowRadius: 0
  m_ShadowAngle: 0
--- !u!1 &461109344
GameObject:
  m_ObjectHideFlags: 0
  m_CorrespondingSourceObject: {fileID: 146268, guid: 282acde1ec2fce44ab4d78f7b5a28add,
    type: 2}
  m_PrefabInternal: {fileID: 2116871286}
  serializedVersion: 6
  m_Component:
  - component: {fileID: 461109348}
  - component: {fileID: 461109347}
  - component: {fileID: 461109346}
  - component: {fileID: 461109345}
  m_Layer: 0
  m_Name: Cube1
  m_TagString: Untagged
  m_Icon: {fileID: 0}
  m_NavMeshLayer: 0
  m_StaticEditorFlags: 0
  m_IsActive: 1
--- !u!23 &461109345
MeshRenderer:
  m_ObjectHideFlags: 0
  m_CorrespondingSourceObject: {fileID: 2315140, guid: 282acde1ec2fce44ab4d78f7b5a28add,
    type: 2}
  m_PrefabInternal: {fileID: 2116871286}
  m_GameObject: {fileID: 461109344}
  m_Enabled: 1
  m_CastShadows: 1
  m_ReceiveShadows: 1
  m_DynamicOccludee: 1
  m_MotionVectors: 1
  m_LightProbeUsage: 1
  m_ReflectionProbeUsage: 1
  m_RenderingLayerMask: 4294967295
  m_Materials:
  - {fileID: 2100000, guid: c5ecf711475aa7047a0d0a381d3f7a5f, type: 2}
  m_StaticBatchInfo:
    firstSubMesh: 0
    subMeshCount: 0
  m_StaticBatchRoot: {fileID: 0}
  m_ProbeAnchor: {fileID: 0}
  m_LightProbeVolumeOverride: {fileID: 0}
  m_ScaleInLightmap: 1
  m_PreserveUVs: 1
  m_IgnoreNormalsForChartDetection: 0
  m_ImportantGI: 0
  m_StitchLightmapSeams: 0
  m_SelectedEditorRenderState: 3
  m_MinimumChartSize: 4
  m_AutoUVMaxDistance: 0.5
  m_AutoUVMaxAngle: 89
  m_LightmapParameters: {fileID: 0}
  m_SortingLayerID: 0
  m_SortingLayer: 0
  m_SortingOrder: 0
--- !u!65 &461109346
BoxCollider:
  m_ObjectHideFlags: 0
  m_CorrespondingSourceObject: {fileID: 6515860, guid: 282acde1ec2fce44ab4d78f7b5a28add,
    type: 2}
  m_PrefabInternal: {fileID: 2116871286}
  m_GameObject: {fileID: 461109344}
  m_Material: {fileID: 0}
  m_IsTrigger: 0
  m_Enabled: 1
  serializedVersion: 2
  m_Size: {x: 1, y: 1, z: 1}
  m_Center: {x: 0, y: 0, z: 0}
--- !u!33 &461109347
MeshFilter:
  m_ObjectHideFlags: 0
  m_CorrespondingSourceObject: {fileID: 3360850, guid: 282acde1ec2fce44ab4d78f7b5a28add,
    type: 2}
  m_PrefabInternal: {fileID: 2116871286}
  m_GameObject: {fileID: 461109344}
  m_Mesh: {fileID: 10202, guid: 0000000000000000e000000000000000, type: 0}
--- !u!4 &461109348
Transform:
  m_ObjectHideFlags: 0
  m_CorrespondingSourceObject: {fileID: 431806, guid: 282acde1ec2fce44ab4d78f7b5a28add,
    type: 2}
  m_PrefabInternal: {fileID: 2116871286}
  m_GameObject: {fileID: 461109344}
  m_LocalRotation: {x: 0, y: 0.23514302, z: 0, w: 0.97196084}
  m_LocalPosition: {x: 0, y: 2.57, z: 0}
  m_LocalScale: {x: 1.5, y: 1.5, z: 1.5}
  m_Children: []
  m_Father: {fileID: 1095613006}
  m_RootOrder: 1
  m_LocalEulerAnglesHint: {x: 0, y: 27.2001, z: 0}
--- !u!1 &526702956
GameObject:
  m_ObjectHideFlags: 0
  m_CorrespondingSourceObject: {fileID: 165604, guid: 282acde1ec2fce44ab4d78f7b5a28add,
    type: 2}
  m_PrefabInternal: {fileID: 2116871286}
  serializedVersion: 6
  m_Component:
  - component: {fileID: 526702957}
  - component: {fileID: 526702960}
  - component: {fileID: 526702959}
  - component: {fileID: 526702958}
  m_Layer: 0
  m_Name: Sphere
  m_TagString: Untagged
  m_Icon: {fileID: 0}
  m_NavMeshLayer: 0
  m_StaticEditorFlags: 0
  m_IsActive: 1
--- !u!4 &526702957
Transform:
  m_ObjectHideFlags: 0
  m_CorrespondingSourceObject: {fileID: 499562, guid: 282acde1ec2fce44ab4d78f7b5a28add,
    type: 2}
  m_PrefabInternal: {fileID: 2116871286}
  m_GameObject: {fileID: 526702956}
  m_LocalRotation: {x: 0, y: 0, z: 0, w: 1}
  m_LocalPosition: {x: 0, y: 0, z: 0}
  m_LocalScale: {x: 0.2, y: 0.2, z: 0.2}
  m_Children: []
  m_Father: {fileID: 92667975}
  m_RootOrder: 0
  m_LocalEulerAnglesHint: {x: 0, y: 0, z: 0}
--- !u!23 &526702958
MeshRenderer:
  m_ObjectHideFlags: 0
  m_CorrespondingSourceObject: {fileID: 2354300, guid: 282acde1ec2fce44ab4d78f7b5a28add,
    type: 2}
  m_PrefabInternal: {fileID: 2116871286}
  m_GameObject: {fileID: 526702956}
  m_Enabled: 1
  m_CastShadows: 1
  m_ReceiveShadows: 1
  m_DynamicOccludee: 1
  m_MotionVectors: 1
  m_LightProbeUsage: 1
  m_ReflectionProbeUsage: 1
  m_RenderingLayerMask: 4294967295
  m_Materials:
  - {fileID: 2100000, guid: 792c4ec6bd2ed664bae355e680c11bdc, type: 2}
  m_StaticBatchInfo:
    firstSubMesh: 0
    subMeshCount: 0
  m_StaticBatchRoot: {fileID: 0}
  m_ProbeAnchor: {fileID: 0}
  m_LightProbeVolumeOverride: {fileID: 0}
  m_ScaleInLightmap: 1
  m_PreserveUVs: 1
  m_IgnoreNormalsForChartDetection: 0
  m_ImportantGI: 0
  m_StitchLightmapSeams: 0
  m_SelectedEditorRenderState: 3
  m_MinimumChartSize: 4
  m_AutoUVMaxDistance: 0.5
  m_AutoUVMaxAngle: 89
  m_LightmapParameters: {fileID: 0}
  m_SortingLayerID: 0
  m_SortingLayer: 0
  m_SortingOrder: 0
--- !u!135 &526702959
SphereCollider:
  m_ObjectHideFlags: 0
  m_CorrespondingSourceObject: {fileID: 13516764, guid: 282acde1ec2fce44ab4d78f7b5a28add,
    type: 2}
  m_PrefabInternal: {fileID: 2116871286}
  m_GameObject: {fileID: 526702956}
  m_Material: {fileID: 0}
  m_IsTrigger: 0
  m_Enabled: 1
  serializedVersion: 2
  m_Radius: 0.5
  m_Center: {x: 0, y: 0, z: 0}
--- !u!33 &526702960
MeshFilter:
  m_ObjectHideFlags: 0
  m_CorrespondingSourceObject: {fileID: 3304736, guid: 282acde1ec2fce44ab4d78f7b5a28add,
    type: 2}
  m_PrefabInternal: {fileID: 2116871286}
  m_GameObject: {fileID: 526702956}
  m_Mesh: {fileID: 10207, guid: 0000000000000000e000000000000000, type: 0}
--- !u!1 &869769901
GameObject:
  m_ObjectHideFlags: 0
  m_CorrespondingSourceObject: {fileID: 188156, guid: 282acde1ec2fce44ab4d78f7b5a28add,
    type: 2}
  m_PrefabInternal: {fileID: 2116871286}
  serializedVersion: 6
  m_Component:
  - component: {fileID: 869769905}
  - component: {fileID: 869769904}
  - component: {fileID: 869769903}
  - component: {fileID: 869769902}
  m_Layer: 0
  m_Name: Cube0
  m_TagString: Untagged
  m_Icon: {fileID: 0}
  m_NavMeshLayer: 0
  m_StaticEditorFlags: 0
  m_IsActive: 1
--- !u!23 &869769902
MeshRenderer:
  m_ObjectHideFlags: 0
  m_CorrespondingSourceObject: {fileID: 2336912, guid: 282acde1ec2fce44ab4d78f7b5a28add,
    type: 2}
  m_PrefabInternal: {fileID: 2116871286}
  m_GameObject: {fileID: 869769901}
  m_Enabled: 1
  m_CastShadows: 1
  m_ReceiveShadows: 1
  m_DynamicOccludee: 1
  m_MotionVectors: 1
  m_LightProbeUsage: 1
  m_ReflectionProbeUsage: 1
  m_RenderingLayerMask: 4294967295
  m_Materials:
  - {fileID: 2100000, guid: eb5f236ff5c587a459cc5c8b3ae142f1, type: 2}
  m_StaticBatchInfo:
    firstSubMesh: 0
    subMeshCount: 0
  m_StaticBatchRoot: {fileID: 0}
  m_ProbeAnchor: {fileID: 0}
  m_LightProbeVolumeOverride: {fileID: 0}
  m_ScaleInLightmap: 1
  m_PreserveUVs: 1
  m_IgnoreNormalsForChartDetection: 0
  m_ImportantGI: 0
  m_StitchLightmapSeams: 0
  m_SelectedEditorRenderState: 3
  m_MinimumChartSize: 4
  m_AutoUVMaxDistance: 0.5
  m_AutoUVMaxAngle: 89
  m_LightmapParameters: {fileID: 0}
  m_SortingLayerID: 0
  m_SortingLayer: 0
  m_SortingOrder: 0
--- !u!65 &869769903
BoxCollider:
  m_ObjectHideFlags: 0
  m_CorrespondingSourceObject: {fileID: 6563790, guid: 282acde1ec2fce44ab4d78f7b5a28add,
    type: 2}
  m_PrefabInternal: {fileID: 2116871286}
  m_GameObject: {fileID: 869769901}
  m_Material: {fileID: 0}
  m_IsTrigger: 0
  m_Enabled: 1
  serializedVersion: 2
  m_Size: {x: 1, y: 1, z: 1}
  m_Center: {x: 0, y: 0, z: 0}
--- !u!33 &869769904
MeshFilter:
  m_ObjectHideFlags: 0
  m_CorrespondingSourceObject: {fileID: 3351136, guid: 282acde1ec2fce44ab4d78f7b5a28add,
    type: 2}
  m_PrefabInternal: {fileID: 2116871286}
  m_GameObject: {fileID: 869769901}
  m_Mesh: {fileID: 10202, guid: 0000000000000000e000000000000000, type: 0}
--- !u!4 &869769905
Transform:
  m_ObjectHideFlags: 0
  m_CorrespondingSourceObject: {fileID: 400456, guid: 282acde1ec2fce44ab4d78f7b5a28add,
    type: 2}
  m_PrefabInternal: {fileID: 2116871286}
  m_GameObject: {fileID: 869769901}
  m_LocalRotation: {x: 0, y: 0, z: 0, w: 1}
  m_LocalPosition: {x: 0, y: 1.01, z: 0}
  m_LocalScale: {x: 1.5, y: 1.5, z: 1.5}
  m_Children: []
  m_Father: {fileID: 1095613006}
  m_RootOrder: 0
  m_LocalEulerAnglesHint: {x: 0, y: 0, z: 0}
--- !u!1 &1095613001
GameObject:
  m_ObjectHideFlags: 0
  m_CorrespondingSourceObject: {fileID: 153532, guid: 282acde1ec2fce44ab4d78f7b5a28add,
    type: 2}
  m_PrefabInternal: {fileID: 2116871286}
  serializedVersion: 6
  m_Component:
  - component: {fileID: 1095613006}
  - component: {fileID: 1095613005}
  - component: {fileID: 1095613004}
  - component: {fileID: 1095613003}
  - component: {fileID: 1095613002}
  m_Layer: 0
  m_Name: Plane
  m_TagString: Untagged
  m_Icon: {fileID: 0}
  m_NavMeshLayer: 0
  m_StaticEditorFlags: 0
  m_IsActive: 1
--- !u!114 &1095613002
MonoBehaviour:
  m_ObjectHideFlags: 0
  m_CorrespondingSourceObject: {fileID: 11483142, guid: 282acde1ec2fce44ab4d78f7b5a28add,
    type: 2}
  m_PrefabInternal: {fileID: 2116871286}
  m_GameObject: {fileID: 1095613001}
  m_Enabled: 1
  m_EditorHideFlags: 0
  m_Script: {fileID: 11500000, guid: 739ad95f346191c48867f5dc38d7bb04, type: 3}
  m_Name: 
  m_EditorClassIdentifier: 
  PlaneRSpeed: 20
  CubeSSpeed: 3
  CubeRAmplitude:
  - 20
  - 40
  - 60
  Cubes:
  - {fileID: 869769901}
  - {fileID: 461109344}
  - {fileID: 1718588148}
--- !u!23 &1095613003
MeshRenderer:
  m_ObjectHideFlags: 0
  m_CorrespondingSourceObject: {fileID: 2325102, guid: 282acde1ec2fce44ab4d78f7b5a28add,
    type: 2}
  m_PrefabInternal: {fileID: 2116871286}
  m_GameObject: {fileID: 1095613001}
  m_Enabled: 1
  m_CastShadows: 1
  m_ReceiveShadows: 1
  m_DynamicOccludee: 1
  m_MotionVectors: 1
  m_LightProbeUsage: 1
  m_ReflectionProbeUsage: 1
  m_RenderingLayerMask: 4294967295
  m_Materials:
  - {fileID: 2100000, guid: c3b772572fdf3af409bc4df0b702e847, type: 2}
  m_StaticBatchInfo:
    firstSubMesh: 0
    subMeshCount: 0
  m_StaticBatchRoot: {fileID: 0}
  m_ProbeAnchor: {fileID: 0}
  m_LightProbeVolumeOverride: {fileID: 0}
  m_ScaleInLightmap: 1
  m_PreserveUVs: 1
  m_IgnoreNormalsForChartDetection: 0
  m_ImportantGI: 0
  m_StitchLightmapSeams: 0
  m_SelectedEditorRenderState: 3
  m_MinimumChartSize: 4
  m_AutoUVMaxDistance: 0.5
  m_AutoUVMaxAngle: 89
  m_LightmapParameters: {fileID: 0}
  m_SortingLayerID: 0
  m_SortingLayer: 0
  m_SortingOrder: 0
--- !u!64 &1095613004
MeshCollider:
  m_ObjectHideFlags: 0
  m_CorrespondingSourceObject: {fileID: 6447784, guid: 282acde1ec2fce44ab4d78f7b5a28add,
    type: 2}
  m_PrefabInternal: {fileID: 2116871286}
  m_GameObject: {fileID: 1095613001}
  m_Material: {fileID: 0}
  m_IsTrigger: 0
  m_Enabled: 1
  serializedVersion: 3
  m_Convex: 0
  m_CookingOptions: 14
  m_SkinWidth: 0.01
  m_Mesh: {fileID: 10209, guid: 0000000000000000e000000000000000, type: 0}
--- !u!33 &1095613005
MeshFilter:
  m_ObjectHideFlags: 0
  m_CorrespondingSourceObject: {fileID: 3395864, guid: 282acde1ec2fce44ab4d78f7b5a28add,
    type: 2}
  m_PrefabInternal: {fileID: 2116871286}
  m_GameObject: {fileID: 1095613001}
  m_Mesh: {fileID: 10209, guid: 0000000000000000e000000000000000, type: 0}
--- !u!4 &1095613006
Transform:
  m_ObjectHideFlags: 0
  m_CorrespondingSourceObject: {fileID: 465940, guid: 282acde1ec2fce44ab4d78f7b5a28add,
    type: 2}
  m_PrefabInternal: {fileID: 2116871286}
  m_GameObject: {fileID: 1095613001}
  m_LocalRotation: {x: 0, y: 0, z: 0, w: 1}
  m_LocalPosition: {x: 0, y: 0, z: 0}
  m_LocalScale: {x: 1, y: 1, z: 1}
  m_Children:
  - {fileID: 869769905}
  - {fileID: 461109348}
  - {fileID: 1718588152}
  - {fileID: 1350251676}
  - {fileID: 1133639080}
  - {fileID: 1098535023}
  m_Father: {fileID: 0}
  m_RootOrder: 1
  m_LocalEulerAnglesHint: {x: 0, y: 0, z: 0}
--- !u!1 &1098535022
GameObject:
  m_ObjectHideFlags: 0
  m_CorrespondingSourceObject: {fileID: 127044, guid: 282acde1ec2fce44ab4d78f7b5a28add,
    type: 2}
  m_PrefabInternal: {fileID: 2116871286}
  serializedVersion: 6
  m_Component:
  - component: {fileID: 1098535023}
  - component: {fileID: 1098535024}
  m_Layer: 0
  m_Name: Light1
  m_TagString: Untagged
  m_Icon: {fileID: 0}
  m_NavMeshLayer: 0
  m_StaticEditorFlags: 0
  m_IsActive: 1
--- !u!4 &1098535023
Transform:
  m_ObjectHideFlags: 0
  m_CorrespondingSourceObject: {fileID: 426884, guid: 282acde1ec2fce44ab4d78f7b5a28add,
    type: 2}
  m_PrefabInternal: {fileID: 2116871286}
  m_GameObject: {fileID: 1098535022}
  m_LocalRotation: {x: 0, y: 0, z: 0, w: 1}
  m_LocalPosition: {x: 0, y: 2.5, z: 0}
  m_LocalScale: {x: 1, y: 1, z: 1}
  m_Children:
  - {fileID: 92667975}
  m_Father: {fileID: 1095613006}
  m_RootOrder: 5
  m_LocalEulerAnglesHint: {x: 0, y: 0, z: 0}
--- !u!114 &1098535024
MonoBehaviour:
  m_ObjectHideFlags: 0
  m_CorrespondingSourceObject: {fileID: 11486784, guid: 282acde1ec2fce44ab4d78f7b5a28add,
    type: 2}
  m_PrefabInternal: {fileID: 2116871286}
  m_GameObject: {fileID: 1098535022}
  m_Enabled: 1
  m_EditorHideFlags: 0
  m_Script: {fileID: 11500000, guid: 9d4f0ece35971814e941583e57a6efd5, type: 3}
  m_Name: 
  m_EditorClassIdentifier: 
  RSpeed: -80
  HSpeed: 2
  HAmplitude: 2
  Child: {fileID: 92667974}
--- !u!1 &1133639079
GameObject:
  m_ObjectHideFlags: 0
  m_CorrespondingSourceObject: {fileID: 150356, guid: 282acde1ec2fce44ab4d78f7b5a28add,
    type: 2}
  m_PrefabInternal: {fileID: 2116871286}
  serializedVersion: 6
  m_Component:
  - component: {fileID: 1133639080}
  - component: {fileID: 1133639081}
  m_Layer: 0
  m_Name: Light0
  m_TagString: Untagged
  m_Icon: {fileID: 0}
  m_NavMeshLayer: 0
  m_StaticEditorFlags: 0
  m_IsActive: 1
--- !u!4 &1133639080
Transform:
  m_ObjectHideFlags: 0
  m_CorrespondingSourceObject: {fileID: 421946, guid: 282acde1ec2fce44ab4d78f7b5a28add,
    type: 2}
  m_PrefabInternal: {fileID: 2116871286}
  m_GameObject: {fileID: 1133639079}
  m_LocalRotation: {x: 0, y: 0, z: 0, w: 1}
  m_LocalPosition: {x: 0, y: 2.5, z: 0}
  m_LocalScale: {x: 1, y: 1, z: 1}
  m_Children:
  - {fileID: 1990217478}
  m_Father: {fileID: 1095613006}
  m_RootOrder: 4
  m_LocalEulerAnglesHint: {x: 0, y: 0, z: 0}
--- !u!114 &1133639081
MonoBehaviour:
  m_ObjectHideFlags: 0
  m_CorrespondingSourceObject: {fileID: 11472416, guid: 282acde1ec2fce44ab4d78f7b5a28add,
    type: 2}
  m_PrefabInternal: {fileID: 2116871286}
  m_GameObject: {fileID: 1133639079}
  m_Enabled: 1
  m_EditorHideFlags: 0
  m_Script: {fileID: 11500000, guid: 9d4f0ece35971814e941583e57a6efd5, type: 3}
  m_Name: 
  m_EditorClassIdentifier: 
  RSpeed: -60
  HSpeed: 3
  HAmplitude: 2
  Child: {fileID: 1990217477}
--- !u!1 &1263509107
GameObject:
  m_ObjectHideFlags: 0
  m_CorrespondingSourceObject: {fileID: 0}
  m_PrefabInternal: {fileID: 0}
  serializedVersion: 6
  m_Component:
  - component: {fileID: 1263509112}
  - component: {fileID: 1263509111}
  - component: {fileID: 1263509110}
  - component: {fileID: 1263509109}
  - component: {fileID: 1263509108}
  - component: {fileID: 1263509113}
  m_Layer: 0
  m_Name: Main Camera
  m_TagString: MainCamera
  m_Icon: {fileID: 0}
  m_NavMeshLayer: 0
  m_StaticEditorFlags: 0
  m_IsActive: 1
--- !u!81 &1263509108
AudioListener:
  m_ObjectHideFlags: 0
  m_CorrespondingSourceObject: {fileID: 0}
  m_PrefabInternal: {fileID: 0}
  m_GameObject: {fileID: 1263509107}
  m_Enabled: 0
--- !u!124 &1263509109
Behaviour:
  m_ObjectHideFlags: 0
  m_CorrespondingSourceObject: {fileID: 0}
  m_PrefabInternal: {fileID: 0}
  m_GameObject: {fileID: 1263509107}
  m_Enabled: 0
--- !u!92 &1263509110
Behaviour:
  m_ObjectHideFlags: 0
  m_CorrespondingSourceObject: {fileID: 0}
  m_PrefabInternal: {fileID: 0}
  m_GameObject: {fileID: 1263509107}
  m_Enabled: 0
--- !u!20 &1263509111
Camera:
  m_ObjectHideFlags: 0
  m_CorrespondingSourceObject: {fileID: 0}
  m_PrefabInternal: {fileID: 0}
  m_GameObject: {fileID: 1263509107}
  m_Enabled: 1
  serializedVersion: 2
  m_ClearFlags: 2
  m_BackGroundColor: {r: 0, g: 0, b: 0, a: 0.019607844}
  m_projectionMatrixMode: 1
  m_SensorSize: {x: 36, y: 24}
  m_LensShift: {x: 0, y: 0}
  m_FocalLength: 50
  m_NormalizedViewPortRect:
    serializedVersion: 2
    x: 0
    y: 0
    width: 1
    height: 1
  near clip plane: 0.3
  far clip plane: 1000
  field of view: 50
  orthographic: 0
  orthographic size: 5
  m_Depth: -1
  m_CullingMask:
    serializedVersion: 2
    m_Bits: 4294967295
  m_RenderingPath: -1
  m_TargetTexture: {fileID: 0}
  m_TargetDisplay: 0
  m_TargetEye: 3
  m_HDR: 0
  m_AllowMSAA: 1
  m_AllowDynamicResolution: 0
  m_ForceIntoRT: 0
  m_OcclusionCulling: 1
  m_StereoConvergence: 10
  m_StereoSeparation: 0.022
--- !u!4 &1263509112
Transform:
  m_ObjectHideFlags: 0
  m_CorrespondingSourceObject: {fileID: 0}
  m_PrefabInternal: {fileID: 0}
  m_GameObject: {fileID: 1263509107}
  m_LocalRotation: {x: 0, y: -0.38268346, z: 0, w: 0.9238795}
  m_LocalPosition: {x: 6, y: 2, z: -6}
  m_LocalScale: {x: 1, y: 1, z: 1}
  m_Children: []
  m_Father: {fileID: 0}
  m_RootOrder: 0
  m_LocalEulerAnglesHint: {x: 0, y: -45, z: 0}
--- !u!114 &1263509113
MonoBehaviour:
  m_ObjectHideFlags: 0
  m_CorrespondingSourceObject: {fileID: 0}
  m_PrefabInternal: {fileID: 0}
  m_GameObject: {fileID: 1263509107}
  m_Enabled: 1
  m_EditorHideFlags: 0
  m_Script: {fileID: 11500000, guid: 42cd8dcae69d178488f5efa28e7c7e78, type: 3}
  m_Name: 
  m_EditorClassIdentifier: 
  shader: {fileID: 4800000, guid: 95703b29f49b899499233ea7308bb800, type: 3}
  BlockCount: 128
--- !u!1 &1337344038
GameObject:
  m_ObjectHideFlags: 0
  m_CorrespondingSourceObject: {fileID: 194768, guid: 282acde1ec2fce44ab4d78f7b5a28add,
    type: 2}
  m_PrefabInternal: {fileID: 2116871286}
  serializedVersion: 6
  m_Component:
  - component: {fileID: 1337344039}
  - component: {fileID: 1337344042}
  - component: {fileID: 1337344041}
  - component: {fileID: 1337344040}
  m_Layer: 0
  m_Name: Sphere
  m_TagString: Untagged
  m_Icon: {fileID: 0}
  m_NavMeshLayer: 0
  m_StaticEditorFlags: 0
  m_IsActive: 1
--- !u!4 &1337344039
Transform:
  m_ObjectHideFlags: 0
  m_CorrespondingSourceObject: {fileID: 472546, guid: 282acde1ec2fce44ab4d78f7b5a28add,
    type: 2}
  m_PrefabInternal: {fileID: 2116871286}
  m_GameObject: {fileID: 1337344038}
  m_LocalRotation: {x: 0, y: 0, z: 0, w: 1}
  m_LocalPosition: {x: 0, y: 0, z: 0}
  m_LocalScale: {x: 0.2, y: 0.2, z: 0.2}
  m_Children: []
  m_Father: {fileID: 1990217478}
  m_RootOrder: 0
  m_LocalEulerAnglesHint: {x: 0, y: 0, z: 0}
--- !u!23 &1337344040
MeshRenderer:
  m_ObjectHideFlags: 0
  m_CorrespondingSourceObject: {fileID: 2368882, guid: 282acde1ec2fce44ab4d78f7b5a28add,
    type: 2}
  m_PrefabInternal: {fileID: 2116871286}
  m_GameObject: {fileID: 1337344038}
  m_Enabled: 1
  m_CastShadows: 1
  m_ReceiveShadows: 1
  m_DynamicOccludee: 1
  m_MotionVectors: 1
  m_LightProbeUsage: 1
  m_ReflectionProbeUsage: 1
  m_RenderingLayerMask: 4294967295
  m_Materials:
  - {fileID: 2100000, guid: 792c4ec6bd2ed664bae355e680c11bdc, type: 2}
  m_StaticBatchInfo:
    firstSubMesh: 0
    subMeshCount: 0
  m_StaticBatchRoot: {fileID: 0}
  m_ProbeAnchor: {fileID: 0}
  m_LightProbeVolumeOverride: {fileID: 0}
  m_ScaleInLightmap: 1
  m_PreserveUVs: 1
  m_IgnoreNormalsForChartDetection: 0
  m_ImportantGI: 0
  m_StitchLightmapSeams: 0
  m_SelectedEditorRenderState: 3
  m_MinimumChartSize: 4
  m_AutoUVMaxDistance: 0.5
  m_AutoUVMaxAngle: 89
  m_LightmapParameters: {fileID: 0}
  m_SortingLayerID: 0
  m_SortingLayer: 0
  m_SortingOrder: 0
--- !u!135 &1337344041
SphereCollider:
  m_ObjectHideFlags: 0
  m_CorrespondingSourceObject: {fileID: 13570302, guid: 282acde1ec2fce44ab4d78f7b5a28add,
    type: 2}
  m_PrefabInternal: {fileID: 2116871286}
  m_GameObject: {fileID: 1337344038}
  m_Material: {fileID: 0}
  m_IsTrigger: 0
  m_Enabled: 1
  serializedVersion: 2
  m_Radius: 0.5
  m_Center: {x: 0, y: 0, z: 0}
--- !u!33 &1337344042
MeshFilter:
  m_ObjectHideFlags: 0
  m_CorrespondingSourceObject: {fileID: 3321982, guid: 282acde1ec2fce44ab4d78f7b5a28add,
    type: 2}
  m_PrefabInternal: {fileID: 2116871286}
  m_GameObject: {fileID: 1337344038}
  m_Mesh: {fileID: 10207, guid: 0000000000000000e000000000000000, type: 0}
--- !u!1 &1350251675
GameObject:
  m_ObjectHideFlags: 0
  m_CorrespondingSourceObject: {fileID: 130004, guid: 282acde1ec2fce44ab4d78f7b5a28add,
    type: 2}
  m_PrefabInternal: {fileID: 2116871286}
  serializedVersion: 6
  m_Component:
  - component: {fileID: 1350251676}
  - component: {fileID: 1350251679}
  - component: {fileID: 1350251678}
  - component: {fileID: 1350251677}
  m_Layer: 0
  m_Name: Sphere
  m_TagString: Untagged
  m_Icon: {fileID: 0}
  m_NavMeshLayer: 0
  m_StaticEditorFlags: 0
  m_IsActive: 1
--- !u!4 &1350251676
Transform:
  m_ObjectHideFlags: 0
  m_CorrespondingSourceObject: {fileID: 406910, guid: 282acde1ec2fce44ab4d78f7b5a28add,
    type: 2}
  m_PrefabInternal: {fileID: 2116871286}
  m_GameObject: {fileID: 1350251675}
  m_LocalRotation: {x: 0, y: 0, z: 0, w: 1}
  m_LocalPosition: {x: 2.2, y: 0.8, z: 2.2}
  m_LocalScale: {x: 1, y: 1, z: 1}
  m_Children: []
  m_Father: {fileID: 1095613006}
  m_RootOrder: 3
  m_LocalEulerAnglesHint: {x: 0, y: 0, z: 0}
--- !u!23 &1350251677
MeshRenderer:
  m_ObjectHideFlags: 0
  m_CorrespondingSourceObject: {fileID: 2395588, guid: 282acde1ec2fce44ab4d78f7b5a28add,
    type: 2}
  m_PrefabInternal: {fileID: 2116871286}
  m_GameObject: {fileID: 1350251675}
  m_Enabled: 1
  m_CastShadows: 1
  m_ReceiveShadows: 1
  m_DynamicOccludee: 1
  m_MotionVectors: 1
  m_LightProbeUsage: 1
  m_ReflectionProbeUsage: 1
  m_RenderingLayerMask: 4294967295
  m_Materials:
  - {fileID: 2100000, guid: 5ea5bdbe591ea6945b9188cd0da0c5a9, type: 2}
  m_StaticBatchInfo:
    firstSubMesh: 0
    subMeshCount: 0
  m_StaticBatchRoot: {fileID: 0}
  m_ProbeAnchor: {fileID: 0}
  m_LightProbeVolumeOverride: {fileID: 0}
  m_ScaleInLightmap: 1
  m_PreserveUVs: 1
  m_IgnoreNormalsForChartDetection: 0
  m_ImportantGI: 0
  m_StitchLightmapSeams: 0
  m_SelectedEditorRenderState: 3
  m_MinimumChartSize: 4
  m_AutoUVMaxDistance: 0.5
  m_AutoUVMaxAngle: 89
  m_LightmapParameters: {fileID: 0}
  m_SortingLayerID: 0
  m_SortingLayer: 0
  m_SortingOrder: 0
--- !u!135 &1350251678
SphereCollider:
  m_ObjectHideFlags: 0
  m_CorrespondingSourceObject: {fileID: 13589104, guid: 282acde1ec2fce44ab4d78f7b5a28add,
    type: 2}
  m_PrefabInternal: {fileID: 2116871286}
  m_GameObject: {fileID: 1350251675}
  m_Material: {fileID: 0}
  m_IsTrigger: 0
  m_Enabled: 1
  serializedVersion: 2
  m_Radius: 0.5
  m_Center: {x: 0, y: 0, z: 0}
--- !u!33 &1350251679
MeshFilter:
  m_ObjectHideFlags: 0
  m_CorrespondingSourceObject: {fileID: 3328720, guid: 282acde1ec2fce44ab4d78f7b5a28add,
    type: 2}
  m_PrefabInternal: {fileID: 2116871286}
  m_GameObject: {fileID: 1350251675}
  m_Mesh: {fileID: 10207, guid: 0000000000000000e000000000000000, type: 0}
--- !u!1 &1718588148
GameObject:
  m_ObjectHideFlags: 0
  m_CorrespondingSourceObject: {fileID: 178256, guid: 282acde1ec2fce44ab4d78f7b5a28add,
    type: 2}
  m_PrefabInternal: {fileID: 2116871286}
  serializedVersion: 6
  m_Component:
  - component: {fileID: 1718588152}
  - component: {fileID: 1718588151}
  - component: {fileID: 1718588150}
  - component: {fileID: 1718588149}
  m_Layer: 0
  m_Name: Cube2
  m_TagString: Untagged
  m_Icon: {fileID: 0}
  m_NavMeshLayer: 0
  m_StaticEditorFlags: 0
  m_IsActive: 1
--- !u!23 &1718588149
MeshRenderer:
  m_ObjectHideFlags: 0
  m_CorrespondingSourceObject: {fileID: 2332454, guid: 282acde1ec2fce44ab4d78f7b5a28add,
    type: 2}
  m_PrefabInternal: {fileID: 2116871286}
  m_GameObject: {fileID: 1718588148}
  m_Enabled: 1
  m_CastShadows: 1
  m_ReceiveShadows: 1
  m_DynamicOccludee: 1
  m_MotionVectors: 1
  m_LightProbeUsage: 1
  m_ReflectionProbeUsage: 1
  m_RenderingLayerMask: 4294967295
  m_Materials:
  - {fileID: 2100000, guid: debe6ad1fd16bad409b424c2b1e46c5f, type: 2}
  m_StaticBatchInfo:
    firstSubMesh: 0
    subMeshCount: 0
  m_StaticBatchRoot: {fileID: 0}
  m_ProbeAnchor: {fileID: 0}
  m_LightProbeVolumeOverride: {fileID: 0}
  m_ScaleInLightmap: 1
  m_PreserveUVs: 1
  m_IgnoreNormalsForChartDetection: 0
  m_ImportantGI: 0
  m_StitchLightmapSeams: 0
  m_SelectedEditorRenderState: 3
  m_MinimumChartSize: 4
  m_AutoUVMaxDistance: 0.5
  m_AutoUVMaxAngle: 89
  m_LightmapParameters: {fileID: 0}
  m_SortingLayerID: 0
  m_SortingLayer: 0
  m_SortingOrder: 0
--- !u!65 &1718588150
BoxCollider:
  m_ObjectHideFlags: 0
  m_CorrespondingSourceObject: {fileID: 6545080, guid: 282acde1ec2fce44ab4d78f7b5a28add,
    type: 2}
  m_PrefabInternal: {fileID: 2116871286}
  m_GameObject: {fileID: 1718588148}
  m_Material: {fileID: 0}
  m_IsTrigger: 0
  m_Enabled: 1
  serializedVersion: 2
  m_Size: {x: 1, y: 1, z: 1}
  m_Center: {x: 0, y: 0, z: 0}
--- !u!33 &1718588151
MeshFilter:
  m_ObjectHideFlags: 0
  m_CorrespondingSourceObject: {fileID: 3355400, guid: 282acde1ec2fce44ab4d78f7b5a28add,
    type: 2}
  m_PrefabInternal: {fileID: 2116871286}
  m_GameObject: {fileID: 1718588148}
  m_Mesh: {fileID: 10202, guid: 0000000000000000e000000000000000, type: 0}
--- !u!4 &1718588152
Transform:
  m_ObjectHideFlags: 0
  m_CorrespondingSourceObject: {fileID: 411230, guid: 282acde1ec2fce44ab4d78f7b5a28add,
    type: 2}
  m_PrefabInternal: {fileID: 2116871286}
  m_GameObject: {fileID: 1718588148}
  m_LocalRotation: {x: 0, y: -0.077878885, z: 0, w: 0.99696285}
  m_LocalPosition: {x: 0, y: 4.16, z: 0}
  m_LocalScale: {x: 1.5, y: 1.5, z: 1.5}
  m_Children: []
  m_Father: {fileID: 1095613006}
  m_RootOrder: 2
  m_LocalEulerAnglesHint: {x: 0, y: -8.9333, z: 0}
--- !u!1 &1990217477
GameObject:
  m_ObjectHideFlags: 0
  m_CorrespondingSourceObject: {fileID: 121974, guid: 282acde1ec2fce44ab4d78f7b5a28add,
    type: 2}
  m_PrefabInternal: {fileID: 2116871286}
  serializedVersion: 6
  m_Component:
  - component: {fileID: 1990217478}
  - component: {fileID: 1990217479}
  m_Layer: 0
  m_Name: PointLight0
  m_TagString: Untagged
  m_Icon: {fileID: 0}
  m_NavMeshLayer: 0
  m_StaticEditorFlags: 0
  m_IsActive: 1
--- !u!4 &1990217478
Transform:
  m_ObjectHideFlags: 0
  m_CorrespondingSourceObject: {fileID: 481886, guid: 282acde1ec2fce44ab4d78f7b5a28add,
    type: 2}
  m_PrefabInternal: {fileID: 2116871286}
  m_GameObject: {fileID: 1990217477}
  m_LocalRotation: {x: 0.11156538, y: 0, z: 0, w: 0.9937571}
  m_LocalPosition: {x: 2, y: 0, z: 0}
  m_LocalScale: {x: 1, y: 1, z: 1}
  m_Children:
  - {fileID: 1337344039}
  m_Father: {fileID: 1133639080}
  m_RootOrder: 0
  m_LocalEulerAnglesHint: {x: 12.8111, y: 0, z: 0}
--- !u!108 &1990217479
Light:
  m_ObjectHideFlags: 0
  m_CorrespondingSourceObject: {fileID: 10807342, guid: 282acde1ec2fce44ab4d78f7b5a28add,
    type: 2}
  m_PrefabInternal: {fileID: 2116871286}
  m_GameObject: {fileID: 1990217477}
  m_Enabled: 1
  serializedVersion: 8
  m_Type: 2
  m_Color: {r: 1, g: 1, b: 1, a: 1}
  m_Intensity: 1
  m_Range: 20
  m_SpotAngle: 30
  m_CookieSize: 10
  m_Shadows:
    m_Type: 2
    m_Resolution: -1
    m_CustomResolution: -1
    m_Strength: 1
    m_Bias: 0.05
    m_NormalBias: 0.4
    m_NearPlane: 0.2
  m_Cookie: {fileID: 0}
  m_DrawHalo: 0
  m_Flare: {fileID: 0}
  m_RenderMode: 0
  m_CullingMask:
    serializedVersion: 2
    m_Bits: 4294967295
  m_Lightmapping: 4
  m_LightShadowCasterMode: 0
  m_AreaSize: {x: 1, y: 1}
  m_BounceIntensity: 0
  m_ColorTemperature: 6570
  m_UseColorTemperature: 0
  m_ShadowRadius: 0
  m_ShadowAngle: 0
--- !u!1001 &2116871286
Prefab:
  m_ObjectHideFlags: 0
  serializedVersion: 2
  m_Modification:
    m_TransformParent: {fileID: 0}
    m_Modifications:
    - target: {fileID: 465940, guid: 282acde1ec2fce44ab4d78f7b5a28add, type: 2}
      propertyPath: m_LocalPosition.x
      value: 0
      objectReference: {fileID: 0}
    - target: {fileID: 465940, guid: 282acde1ec2fce44ab4d78f7b5a28add, type: 2}
      propertyPath: m_LocalPosition.y
      value: 0
      objectReference: {fileID: 0}
    - target: {fileID: 465940, guid: 282acde1ec2fce44ab4d78f7b5a28add, type: 2}
      propertyPath: m_LocalPosition.z
      value: 0
      objectReference: {fileID: 0}
    - target: {fileID: 465940, guid: 282acde1ec2fce44ab4d78f7b5a28add, type: 2}
      propertyPath: m_LocalRotation.x
      value: 0
      objectReference: {fileID: 0}
    - target: {fileID: 465940, guid: 282acde1ec2fce44ab4d78f7b5a28add, type: 2}
      propertyPath: m_LocalRotation.y
      value: 0
      objectReference: {fileID: 0}
    - target: {fileID: 465940, guid: 282acde1ec2fce44ab4d78f7b5a28add, type: 2}
      propertyPath: m_LocalRotation.z
      value: 0
      objectReference: {fileID: 0}
    - target: {fileID: 465940, guid: 282acde1ec2fce44ab4d78f7b5a28add, type: 2}
      propertyPath: m_LocalRotation.w
      value: 1
      objectReference: {fileID: 0}
    - target: {fileID: 465940, guid: 282acde1ec2fce44ab4d78f7b5a28add, type: 2}
      propertyPath: m_RootOrder
      value: 2
      objectReference: {fileID: 0}
    m_RemovedComponents: []
  m_SourcePrefab: {fileID: 100100000, guid: 282acde1ec2fce44ab4d78f7b5a28add, type: 2}
  m_RootGameObject: {fileID: 1095613001}
  m_IsPrefabAsset: 0
